<?xml version="1.0" encoding="UTF-8" standalone="no"?>
<svg xmlns="http://www.w3.org/2000/svg" height="256" width="256" version="1.1" viewBox="0 0 67.733332 67.733335">
 <rect style="color-rendering:auto;color:#000000;isolation:auto;mix-blend-mode:normal;paint-order:stroke fill markers;shape-rendering:auto;solid-color:#000000;image-rendering:auto;fill:#2f89cd" ry="0" height="67.73" width="67.73" y=".000003727" x="0"/>
 <rect style="opacity:.1;color-rendering:auto;color:#000000;isolation:auto;mix-blend-mode:normal;paint-order:stroke fill markers;shape-rendering:auto;solid-color:#000000;image-rendering:auto;fill:#fff" ry="0" height="16.41" width="67.85" y="51.33" x="-.1141"/>
 <path style="stroke-width:.04113" d="m50.44 57.41c-1.57 0-3.14-0.5732-4.287-1.72l-16.62-16.62c-2.138 1.624-4.733 2.502-7.464 2.502-3.3 0-6.407-1.286-8.744-3.624-2.334-2.334-3.621-5.439-3.621-8.743 0-3.303 1.288-6.409 3.621-8.744l6.516-6.514c2.337-2.337 5.441-3.624 8.745-3.624 3.303 0 6.405 1.286 8.744 3.62 4.531 4.531 4.805 11.74 0.8146 16.59l6.785 6.787 0.1145-0.1145c1.928-1.926 5.286-1.92 7.202 0 0.8031 0.8031 1.28 1.812 1.436 2.861 1.111 0.1106 2.138 0.5973 2.937 1.397 0.9156 0.9156 1.42 2.134 1.42 3.43s-0.5024 2.514-1.42 3.429l-0.64 0.6419c0.9873 2.231 0.5605 4.923-1.247 6.731-1.146 1.146-2.717 1.72-4.287 1.72z"/>
 <path style="stroke-width:.04113;fill:#d1d1d1" d="m50.44 53.57c0.5655 0 1.131-0.2066 1.544-0.6198 0.8109-0.8089 0.8438-2.118 0.07564-2.979-0.6828-0.7682-0.6479-1.934 0.07954-2.661l1.732-1.732c0.2444-0.2464 0.2831-0.5374 0.2831-0.6867 0-0.1513-0.03674-0.4384-0.2831-0.6848-0.2463-0.2463-0.5334-0.2831-0.6866-0.2831s-0.4404 0.03677-0.6867 0.2831l-1.717 1.715c-0.7546 0.7584-2.008 0.7311-2.77-0.02542-0.3647-0.3647-0.5684-0.8574-0.5684-1.373 0-0.514 0.2038-1.007 0.5684-1.371l1.486-1.484c0.4772-0.4753 0.4772-1.245 0-1.721-0.4559-0.4561-1.255-0.4562-1.713 0.0017l-1.486 1.486c-0.7275 0.7274-2.016 0.7274-2.743 0l-9.488-9.489c-0.7584-0.7584-0.7584-1.984 0-2.743l0.5159-0.5141c3.307-3.311 3.307-8.694 0-12-1.602-1.604-3.736-2.487-6.002-2.487s-4.399 0.8825-6.002 2.487l-6.516 6.514c-1.602 1.602-2.485 3.734-2.485 6.002 0 2.266 0.8826 4.397 2.485 6 1.606 1.604 3.736 2.487 6.002 2.487h-0.0041c2.266 0 4.399-0.8826 6.004-2.481l0.1707-0.1708c0.7584-0.7584 1.984-0.7584 2.743 0l17.92 17.92c0.4131 0.4132 0.9786 0.6198 1.544 0.6198z"/>
 <path style="stroke-width:.04113" d="m22.07 33.76c-1.194 0-2.388-0.435-3.259-1.305-1.796-1.798-1.792-4.719 0-6.514l6.516-6.516c0.8685-0.8666 2.026-1.346 3.257-1.346 1.229 0.000803 2.385 0.4777 3.259 1.346 1.796 1.798 1.796 4.719 0 6.514l-6.516 6.516c-0.869 0.87-2.063 1.305-3.256 1.305z"/>
 <path style="stroke-width:.04113;fill:#d1d1d1" d="m22.06 29.93h0.0041c0.1145 0 0.3298-0.02517 0.514-0.2114l6.516-6.516c0.2813-0.2832 0.2813-0.7448 0-1.026-0.3705-0.3702-0.6672-0.3662-1.034-0.0017l-6.516 6.516c-0.2812 0.2832-0.2812 0.7449 0 1.028 0.1863 0.1843 0.4015 0.2114 0.516 0.2114z"/>
</svg>
